[
	{
		"title": "Siguiente Jueves",
		"content": "Cuantos van a ir?",
		"likes": 2,
		"createdAt": "2016-09-10T10:13:53.803Z",
		"topic": 1,
		"id": 333573929
	},
	{
		"title": "Suspension",
		"content": "Se suspende el anterior partido debido al mal tiempo",
		"likes": 3,
		"createdAt": "2016-09-10T10:25:31.087Z",
		"topic": 1,
		"id": 333575107
	},
	{
		"title": "Otro",
		"content": "# Hola\n* Uno\n* Dos",
		"likes": 2,
		"createdAt": "2016-09-10T10:59:23.368Z",
		"topic": 1,
		"id": 333578499
	},
	{
		"title": "orderBy",
		"content": "Returns an array containing the items from the specified collection, ordered by a comparator function based on the values computed using the expression predicate.",
		"likes": 0,
		"createdAt": "2016-09-22T19:32:08.157Z",
		"topic": 2,
		"id": 345665784
	},
	{
		"title": "Lorem Ipsum",
		"content": "**Lorem Ipsum** is simply dummy text of the printing and typesetting industry. Lorem Ipsum has been the industry's standard dummy text ever since the 1500s, when an unknown printer took a galley of type and scrambled it to make a type specimen book. It has survived not only five centuries, but also the leap into electronic typesetting, remaining essentially unchanged. It was popularised in the 1960s with the release of Letraset sheets containing Lorem Ipsum passages, and more recently with desktop publishing software like Aldus PageMaker including versions of Lorem Ipsum.",
		"likes": 1,
		"createdAt": "2016-09-22T19:36:13.997Z",
		"topic": 2,
		"id": 345666190
	},
	{
		"title": "Where does it come from?",
		"content": "Contrary to popular belief, Lorem Ipsum is not simply random text. It has roots in a piece of classical Latin literature from 45 BC, making it over 2000 years old. Richard McClintock, a Latin professor at Hampden-Sydney College in Virginia, looked up one of the more obscure Latin words, consectetur, from a Lorem Ipsum passage, and going through the cites of the word in classical literature, discovered the undoubtable source. Lorem Ipsum comes from sections 1.10.32 and 1.10.33 of \"de Finibus Bonorum et Malorum\" (The Extremes of Good and Evil) by Cicero, written in 45 BC. This book is a treatise on the theory of ethics, very popular during the Renaissance. The first line of Lorem Ipsum, \"Lorem ipsum dolor sit amet..\", comes from a line in section 1.10.32.\n\nThe standard chunk of Lorem Ipsum used since the 1500s is reproduced below for those interested. Sections 1.10.32 and 1.10.33 from \"de Finibus Bonorum et Malorum\" by Cicero are also reproduced in their exact original form, accompanied by English versions from the 1914 translation by H. Rackham.",
		"likes": 0,
		"createdAt": "2016-09-22T19:37:34.054Z",
		"topic": 2,
		"id": 345666310
	},
	{
		"title": "Where can I get some?",
		"content": "There are many variations of passages of Lorem Ipsum available, but the majority have suffered alteration in some form, by injected humour, or randomised words which don't look even slightly believable. If you are going to use a passage of Lorem Ipsum, you need to be sure there isn't anything embarrassing hidden in the middle of text. All the Lorem Ipsum generators on the Internet tend to repeat predefined chunks as necessary, making this the first true generator on the Internet. It uses a dictionary of over 200 Latin words, combined with a handful of model sentence structures, to generate Lorem Ipsum which looks reasonable. The generated Lorem Ipsum is therefore always free from repetition, injected humour, or non-characteristic words etc.",
		"likes": 0,
		"createdAt": "2016-09-22T19:58:53.945Z",
		"topic": 1,
		"id": 345668429
	},
	{
		"title": "Otra cosa",
		"content": "# Otra Cosa\n* Uno\n* Dos\n\n > Texto 1\n\n > Texto 2",
		"likes": 1,
		"createdAt": "2016-09-27T01:08:11.526Z",
		"topic": 2,
		"id": 349723387
	},
	{
		"title": "Prueba 1",
		"content": "Esta es mi *Prueba* de ```Angujar JS```",
		"likes": 0,
		"createdAt": "2017-02-24T00:28:42.495Z",
		"topic": 2,
		"id": 1056780899
	},
	{
		"title": "Prueba 2",
		"content": "Otro [contenido](www.google.com)",
		"likes": 0,
		"createdAt": "2017-02-24T00:29:52.330Z",
		"topic": 2,
		"id": 1056781013
	},
	{
		"title": "Prueba 3",
		"content": "Mi Prueba 3",
		"likes": 0,
		"createdAt": "2017-02-24T01:03:24.804Z",
		"topic": 2,
		"id": 1056788319
	},
	{
		"title": "Prueba 4",
		"content": "Contenido 4\ndel Panel",
		"likes": 0,
		"createdAt": "2017-02-24T01:24:53.709Z",
		"topic": 2,
		"id": 1056790491
	},
	{
		"title": "Prueba Dlg 1",
		"content": "Contenido\nDlg 1",
		"likes": 1,
		"createdAt": "2017-02-24T01:26:37.283Z",
		"topic": 2,
		"id": 1056790632
	},
	{
		"title": "Prueba Dlg 2",
		"content": "Contenido",
		"likes": 3,
		"createdAt": "2017-02-24T01:31:00.477Z",
		"topic": 2,
		"id": 1056791188
	},
	{
		"title": "Dialogo 2",
		"content": "Contenido 2",
		"likes": 0,
		"createdAt": "2017-02-24T01:42:50.601Z",
		"topic": 3,
		"id": 1056792790
	}
]