[{
  "id": 1,
  "username": "dcamacho",
  "fullname": "David Camacho J.",
  "password": "MiPwd..",
  "role": "admin"
}
,{"id":2, "username": "miltonc", "fullname": "Milton Chambi", "password": "sintesis.com.bo", "role": "admin"}
,{"id":3, "username": "pauloo", "fullname": "Paulo Ortiz", "password": "sintesis.com.bo", "role": "admin"}
,{"id":4, "username": "danielao", "fullname": "Daniela Osinaga", "password": "sintesis.com.bo", "role": "admin"}
,{"id":5, "username": "juanc", "fullname": "Juan Carlos Coronado", "password": "sintesis.com.bo", "role": "admin"}
,{"id":6, "username": "victorv", "fullname": "Victor Hugo Vera", "password": "sintesis.com.bo", "role": "admin"}
,{"id":7, "username": "wilmerh", "fullname": "Wilmer Herrera", "password": "sintesis.com.bo", "role": "admin"}
,{"id":8, "username": "takovomora.apg", "fullname": "Luis Alberto Baigorria Rodas", "password": "gmail.com", "role": "admin"}
,{"id":9, "username": "yessuitorres", "fullname": "Yessui Torrez", "password": "gmail.com", "role": "admin"}
,{"id":10, "username": "ronaldvc_678", "fullname": "Ronald Vaca Castillo", "password": "hotmail.com", "role": "admin"}
,{"id":11, "username": "for.benjhy", "fullname": "Benjamín Calle", "password": "gmail.com", "role": "admin"}
,{"id":12, "username": "emanuel.bl589", "fullname": "Emanuel Baltazar", "password": "gmail.com", "role": "admin"}
,{"id":13, "username": "jma2506", "fullname": "Jorge Moreira", "password": "gmail.com", "role": "admin"}
]
